<?xml version="1.0" encoding="utf-8"?>
<!-- Generator: Adobe Illustrator 18.0.0, SVG Export Plug-In . SVG Version: 6.00 Build 0)  -->
<!DOCTYPE svg PUBLIC "-//W3C//DTD SVG 1.1//EN" "http://www.w3.org/Graphics/SVG/1.1/DTD/svg11.dtd">
<svg version="1.1" id="Слой_1" xmlns="http://www.w3.org/2000/svg" xmlns:xlink="http://www.w3.org/1999/xlink" x="0px" y="0px"
	 viewBox="0 0 330 60" enable-background="new 0 0 330 60" xml:space="preserve">
<g>
	<defs>
		<rect id="SVGID_1_" width="330" height="60"/>
	</defs>
	<clipPath id="SVGID_2_">
		<use xlink:href="#SVGID_1_"  overflow="visible"/>
	</clipPath>
	<path clip-path="url(#SVGID_2_)" d="M175,0c0,0-5,0-5,5v50c0,0,0,5,5,5h150c0,0,5,0,5-5V5c0,0,0-5-5-5H175z"/>
	<path clip-path="url(#SVGID_2_)" fill="#FFFFFF" d="M289.6,34c-1,0-1.6,0.3-2.1,0.8c-0.4,0.5-0.6,1.4-0.7,2.5v0.3
		c0,1.3,0.2,2.2,0.7,2.8c0.4,0.6,1.1,0.8,2.1,0.8c0.8,0,1.4-0.3,1.9-1c0.5-0.7,0.7-1.6,0.7-2.7c0-1.2-0.2-2.1-0.7-2.7
		C291,34.3,290.4,34,289.6,34 M289.8,42.5c-0.6,0-1.2-0.1-1.7-0.3c-0.5-0.2-0.9-0.6-1.3-1h-0.1c0.1,0.5,0.1,1.1,0.1,1.5v3.8h-1.4V33
		h1.1l0.2,1.3h0.1c0.4-0.5,0.8-0.9,1.3-1.1c0.5-0.2,1-0.3,1.7-0.3c1.2,0,2.2,0.4,2.9,1.3c0.7,0.8,1,2,1,3.6c0,1.5-0.3,2.7-1,3.6
		C291.9,42,291,42.5,289.8,42.5"/>
</g>
<rect x="295.5" y="29" fill="#FFFFFF" width="1.4" height="13.2"/>
<g>
	<defs>
		<rect id="SVGID_3_" width="330" height="60"/>
	</defs>
	<clipPath id="SVGID_4_">
		<use xlink:href="#SVGID_3_"  overflow="visible"/>
	</clipPath>
	<path clip-path="url(#SVGID_4_)" fill="#FFFFFF" d="M301.9,41.3c0.9,0,1.6-0.2,2.1-0.7c0.5-0.5,0.8-1.2,0.8-2v-0.8l-1.4,0.1
		c-1.1,0-1.9,0.2-2.4,0.5c-0.5,0.3-0.7,0.8-0.7,1.4c0,0.5,0.2,0.9,0.5,1.2C300.9,41.2,301.3,41.3,301.9,41.3 M305.1,42.3l-0.3-1.3
		h-0.1c-0.5,0.6-0.9,1-1.4,1.2c-0.5,0.2-1,0.3-1.7,0.3c-0.9,0-1.7-0.2-2.2-0.7c-0.5-0.5-0.8-1.2-0.8-2c0-1.9,1.5-2.9,4.5-3l1.6-0.1
		v-0.6c0-0.7-0.2-1.3-0.5-1.6s-0.8-0.5-1.5-0.5c-0.8,0-1.7,0.2-2.6,0.7l-0.4-1.1c0.5-0.2,1-0.4,1.5-0.6c0.5-0.1,1.1-0.2,1.6-0.2
		c1.1,0,1.9,0.2,2.5,0.7c0.5,0.5,0.8,1.3,0.8,2.4v6.4H305.1z"/>
	<path clip-path="url(#SVGID_4_)" fill="#FFFFFF" d="M306.9,33h1.5l2,5.3c0.4,1.2,0.7,2.1,0.8,2.6h0.1c0.1-0.3,0.2-0.8,0.5-1.5
		c0.2-0.7,1-2.9,2.3-6.5h1.5l-4,10.6c-0.4,1.1-0.9,1.8-1.4,2.2c-0.5,0.4-1.2,0.7-2,0.7c-0.4,0-0.9,0-1.3-0.1v-1.1
		c0.3,0.1,0.7,0.1,1,0.1c1,0,1.7-0.5,2.1-1.6l0.5-1.3L306.9,33z"/>
	<path clip-path="url(#SVGID_4_)" fill="#FFFFFF" d="M262.8,38.8c0.4-0.4,0.5-1.1,0.5-1.4c0-1.4-0.8-3.6-2.5-3.6
		c-0.5,0-1.1,0.3-1.4,0.6c-0.3,0.4-0.4,0.9-0.4,1.4c0,1.3,0.8,3.5,2.4,3.5C261.9,39.3,262.5,39.1,262.8,38.8 M262.2,42.5
		c-0.2,0-0.3,0-0.4,0c-0.2,0-1.2,0-2.1,0.3c-0.4,0.2-1.7,0.6-1.7,2c0,1.4,1.3,2.4,3.4,2.4c1.9,0,2.9-0.9,2.9-2.1
		C264.3,44.1,263.7,43.5,262.2,42.5 M263.6,33.8c0.4,0.4,1.4,1.2,1.4,2.6c0,1.4-0.8,2.1-1.6,2.8c-0.3,0.3-0.5,0.5-0.5,1
		c0,0.4,0.3,0.7,0.5,0.8l0.7,0.5c0.9,0.7,1.6,1.4,1.6,2.7c0,1.8-1.8,3.7-5.1,3.7c-2.8,0-4.2-1.3-4.2-2.8c0-0.7,0.3-1.7,1.5-2.4
		c1.2-0.7,2.9-0.8,3.7-0.9c-0.3-0.4-0.6-0.7-0.6-1.3c0-0.3,0.1-0.5,0.2-0.8c-0.2,0-0.4,0-0.6,0c-2.1,0-3.2-1.5-3.2-3.1
		c0-0.9,0.4-1.9,1.2-2.6c1.1-0.9,2.4-1.1,3.5-1.1h4l-1.2,0.7H263.6z"/>
	<path clip-path="url(#SVGID_4_)" fill="#FFFFFF" d="M253.7,40.6c0.5-0.6,0.6-1.4,0.6-2.2c0-1.7-0.8-5-3.2-5c-0.6,0-1.3,0.3-1.8,0.7
		c-0.8,0.7-0.9,1.5-0.9,2.4c0,1.9,1,5.1,3.3,5.1C252.5,41.6,253.3,41.2,253.7,40.6 M251.3,42.2c-3.1,0-4.8-2.4-4.8-4.6
		c0-2.6,2.1-4.7,5-4.7c2.9,0,4.7,2.2,4.7,4.6C256.3,39.7,254.5,42.2,251.3,42.2"/>
	<path clip-path="url(#SVGID_4_)" fill="#FFFFFF" d="M243.2,40.6c0.5-0.6,0.6-1.4,0.6-2.2c0-1.7-0.8-5-3.2-5c-0.6,0-1.3,0.3-1.8,0.7
		c-0.8,0.7-0.9,1.5-0.9,2.4c0,1.9,1,5.1,3.3,5.1C242,41.6,242.7,41.2,243.2,40.6 M240.7,42.2c-3.1,0-4.8-2.4-4.8-4.6
		c0-2.6,2.1-4.7,5-4.7c2.9,0,4.7,2.2,4.7,4.6C245.7,39.7,243.9,42.2,240.7,42.2"/>
	<path clip-path="url(#SVGID_4_)" fill="#FFFFFF" d="M234.5,41.9l-2.8,0.6c-1.1,0.2-2.2,0.3-3.2,0.3c-5.4,0-7.5-4-7.5-7.1
		c0-3.8,2.9-7.3,7.9-7.3c1.1,0,2.1,0.2,3,0.4c1.5,0.4,2.2,0.9,2.6,1.2l-1.6,1.5l-0.7,0.2l0.5-0.8c-0.7-0.6-1.9-1.8-4.2-1.8
		c-3.1,0-5.4,2.4-5.4,5.8c0,3.7,2.7,7.2,6.9,7.2c1.3,0,1.9-0.3,2.5-0.5v-3.2l-3,0.2l1.6-0.8h4.2l-0.5,0.5c-0.1,0.1-0.2,0.2-0.2,0.3
		c0,0.2,0,0.7,0,0.9V41.9z"/>
	<path clip-path="url(#SVGID_4_)" fill="#FFFFFF" d="M269.8,41.3c-0.6-0.1-0.8-0.2-0.8-0.9v-0.2V29.3c0,0,0-0.1,0-0.1
		c0.1-0.7,0.3-0.8,0.9-1.2h-2.8l-1.5,0.7h1.5v0l0,0v11.5v0.6c0,0.4-0.1,0.5-0.5,1h3.5l0.7-0.4C270.5,41.4,270.1,41.4,269.8,41.3"/>
	<path clip-path="url(#SVGID_4_)" fill="#FFFFFF" d="M275.9,35.7c0.4-0.1,0.6-0.3,0.6-0.5c0-0.8-0.9-1.7-1.9-1.7
		c-0.8,0-2.2,0.6-2.2,2.7c0,0.3,0,0.7,0.1,1L275.9,35.7z M277.8,41.5c-0.2,0.1-0.4,0.3-0.6,0.4c-0.6,0.3-1.3,0.4-1.9,0.4
		c-0.6,0-1.6,0-2.6-0.8c-1.4-1-2-2.6-2-4.1c0-3,2.5-4.5,4.5-4.5c0.7,0,1.4,0.2,2,0.5c1,0.6,1.2,1.5,1.4,1.9l-4.6,1.8l-1.5,0.1
		c0.5,2.5,2.2,3.9,4,3.9c1,0,1.7-0.3,2.4-0.7L277.8,41.5z"/>
</g>
<polygon fill="#FFFFFF" points="279.6,33 279.6,34.3 279.5,34.3 279.5,33 279.1,33 279.1,32.9 280.1,32.9 280.1,33 "/>
<polygon fill="#FFFFFF" points="281.4,34.3 281.4,33 281.4,33 281,34.3 280.9,34.3 280.5,33 280.5,33 280.5,34.3 280.3,34.3 
	280.3,32.9 280.6,32.9 280.9,34 280.9,34 281.3,32.9 281.5,32.9 281.5,34.3 "/>
<g>
	<defs>
		<path id="SVGID_5_" d="M185.5,15c-0.3,0.1-0.5,0.4-0.5,0.8V44c0,0.3,0.1,0.6,0.4,0.6l15-14.9L185.5,15L185.5,15z"/>
	</defs>
	<clipPath id="SVGID_6_">
		<use xlink:href="#SVGID_5_"  overflow="visible"/>
	</clipPath>
	
		<linearGradient id="SVGID_7_" gradientUnits="userSpaceOnUse" x1="0" y1="60" x2="1" y2="60" gradientTransform="matrix(0 30.5495 30.5495 0 -1640.2675 14.5246)">
		<stop  offset="0" style="stop-color:#237CAF"/>
		<stop  offset="4.889667e-02" style="stop-color:#2E85B0"/>
		<stop  offset="0.222" style="stop-color:#4E9FB5"/>
		<stop  offset="0.4009" style="stop-color:#68B4B8"/>
		<stop  offset="0.5858" style="stop-color:#7AC2BA"/>
		<stop  offset="0.7802" style="stop-color:#84CBBC"/>
		<stop  offset="1" style="stop-color:#88CEBC"/>
	</linearGradient>
	<rect x="185" y="15" clip-path="url(#SVGID_6_)" fill="url(#SVGID_7_)" width="15.4" height="29.7"/>
</g>
<g>
	<defs>
		<path id="SVGID_8_" d="M185.5,15l14.9,14.8l4.1-4.1l-6.2-3.6c0,0,0,0-0.1-0.1l0,0c-0.1,0-0.2-0.1-0.3-0.2l0,0c0,0,0,0,0,0l0,0
			c0,0,0,0,0,0l0,0c0,0,0,0,0,0l0,0c0,0-0.1,0-0.1-0.1l0,0c0,0,0,0-0.1,0l0,0c0,0,0,0-0.1,0l0,0c0,0,0,0,0,0l-0.3-0.2c0,0,0,0,0,0
			L187,15.6c0,0,0,0,0,0l0,0c0,0,0,0,0,0l0,0c-0.3-0.2-0.5-0.3-0.6-0.3c-0.2-0.1-0.4-0.2-0.6-0.2C185.6,15,185.6,15,185.5,15"/>
	</defs>
	<clipPath id="SVGID_9_">
		<use xlink:href="#SVGID_8_"  overflow="visible"/>
	</clipPath>
	
		<linearGradient id="SVGID_10_" gradientUnits="userSpaceOnUse" x1="0" y1="59.985" x2="1" y2="59.985" gradientTransform="matrix(19.5423 0 0 -19.5423 185 1194.6461)">
		<stop  offset="0" style="stop-color:#51BFAC"/>
		<stop  offset="0.1925" style="stop-color:#67C5A9"/>
		<stop  offset="0.5926" style="stop-color:#9ED5A1"/>
		<stop  offset="1" style="stop-color:#DDE798"/>
	</linearGradient>
	<rect x="185.5" y="15" clip-path="url(#SVGID_9_)" fill="url(#SVGID_10_)" width="19" height="14.8"/>
</g>
<g>
	<defs>
		<path id="SVGID_11_" d="M185.4,44.7c0.1,0,0.1,0,0.2,0h0c0.1,0,0.3,0,0.5-0.1c0.6-0.3,11.3-6.5,12.2-7.1l0,0c0,0,0,0,0,0l0,0
			l6.2-3.6l-4.1-4.1L185.4,44.7z"/>
	</defs>
	<clipPath id="SVGID_12_">
		<use xlink:href="#SVGID_11_"  overflow="visible"/>
	</clipPath>
	
		<linearGradient id="SVGID_13_" gradientUnits="userSpaceOnUse" x1="2.516628e-05" y1="60.0124" x2="1" y2="60.0124" gradientTransform="matrix(0 15.3853 15.3853 0 -728.3492 29.7996)">
		<stop  offset="0" style="stop-color:#EB403D"/>
		<stop  offset="3.397983e-02" style="stop-color:#E64142"/>
		<stop  offset="0.3286" style="stop-color:#BE4569"/>
		<stop  offset="0.5978" style="stop-color:#A14885"/>
		<stop  offset="0.8305" style="stop-color:#8F4996"/>
		<stop  offset="1" style="stop-color:#894A9C"/>
	</linearGradient>
	<rect x="185.4" y="29.8" clip-path="url(#SVGID_12_)" fill="url(#SVGID_13_)" width="19.2" height="14.9"/>
</g>
<g>
	<defs>
		<path id="SVGID_14_" d="M200.4,29.8l4.1,4.1c0,0,0,0,0,0l0,0c0,0,0,0,0,0l5.9-3.4c0,0,0.1,0,0.1-0.1c0.7-0.4,0.6-0.9,0.1-1.2
			l-0.1,0c-0.6-0.3-6-3.5-6-3.5L200.4,29.8z"/>
	</defs>
	<clipPath id="SVGID_15_">
		<use xlink:href="#SVGID_14_"  overflow="visible"/>
	</clipPath>
	
		<linearGradient id="SVGID_16_" gradientUnits="userSpaceOnUse" x1="3.486837e-05" y1="59.9721" x2="1" y2="59.9721" gradientTransform="matrix(0 8.2052 8.2052 0 -286.286 25.6967)">
		<stop  offset="0" style="stop-color:#F48678"/>
		<stop  offset="1.319069e-02" style="stop-color:#F48778"/>
		<stop  offset="0.6697" style="stop-color:#FBB475"/>
		<stop  offset="1" style="stop-color:#FDC674"/>
	</linearGradient>
	<rect x="200.4" y="25.7" clip-path="url(#SVGID_15_)" fill="url(#SVGID_16_)" width="10.8" height="8.2"/>
</g>
<g>
	<defs>
		<rect id="SVGID_17_" width="330" height="60"/>
	</defs>
	<clipPath id="SVGID_18_">
		<use xlink:href="#SVGID_17_"  overflow="visible"/>
	</clipPath>
	<path clip-path="url(#SVGID_18_)" fill="#FFFFFF" d="M294.7,16.7L294.7,16.7l1.1,2.9h-2.2L294.7,16.7z M296.6,22h0.9l-2.4-6.4h-0.7
		l-2.5,6.4h0.9l0.6-1.6h2.7L296.6,22z M289.9,15.6H289v2.9h-3.1v-2.9H285V22h0.9v-2.8h3.1V22h0.9V15.6z M279.5,18.4h-2.9v-2.1h3.3
		v-0.7h-4.2V22h4.2v-0.7h-3.4V19h2.9V18.4z M273.7,15.6h-5v0.7h2.1V22h0.9v-5.7h2.1V15.6z M262.8,20.5L262.8,20.5l0-4.9h-0.9V22h0.9
		l3.1-4.9l0,0V22h0.9v-6.4h-0.9L262.8,20.5z M258.8,16c-0.4-0.3-1-0.5-1.8-0.5c-0.7,0-1.2,0.2-1.7,0.5c-0.4,0.3-0.7,0.7-0.6,1.3l0,0
		h0.8c0-0.3,0.1-0.6,0.4-0.8c0.3-0.2,0.6-0.3,1-0.3c0.5,0,0.9,0.1,1.2,0.3c0.3,0.2,0.4,0.5,0.4,0.8c0,0.3-0.1,0.6-0.4,0.8
		c-0.2,0.2-0.6,0.3-1.1,0.3h-0.8v0.7h0.8c0.5,0,0.9,0.1,1.2,0.3c0.3,0.2,0.4,0.5,0.4,0.9c0,0.4-0.1,0.6-0.4,0.9
		c-0.3,0.2-0.7,0.3-1.2,0.3c-0.5,0-0.8-0.1-1.1-0.3c-0.3-0.2-0.4-0.5-0.4-0.8h-0.8l0,0c0,0.6,0.2,1.1,0.7,1.4c0.5,0.3,1,0.5,1.7,0.5
		c0.8,0,1.4-0.2,1.8-0.5c0.5-0.3,0.7-0.8,0.7-1.4c0-0.4-0.1-0.7-0.3-0.9c-0.2-0.3-0.5-0.4-0.9-0.6c0.4-0.1,0.6-0.3,0.8-0.6
		c0.2-0.2,0.3-0.5,0.3-0.8C259.5,16.7,259.3,16.3,258.8,16 M248.9,15.6h-1l2.1,4.8l-0.2,0.4c-0.1,0.2-0.2,0.4-0.3,0.5
		c-0.1,0.1-0.2,0.2-0.4,0.2c0,0-0.1,0-0.2,0c-0.1,0-0.2,0-0.2,0l0,0.7c0,0,0.1,0,0.2,0c0.1,0,0.2,0,0.3,0c0.4,0,0.8-0.1,1-0.3
		c0.2-0.2,0.4-0.5,0.6-0.9l2.2-5.3h-1l-1.4,3.8h0l-0.3-0.8L248.9,15.6z M242.6,16.3h1.6c0.4,0,0.8,0.1,1,0.4
		c0.2,0.2,0.3,0.5,0.3,0.9c0,0.4-0.1,0.6-0.3,0.9c-0.2,0.2-0.5,0.3-1,0.3h-1.6V16.3z M244.2,19.4c0.7,0,1.2-0.2,1.6-0.5
		c0.4-0.3,0.6-0.8,0.6-1.4c0-0.6-0.2-1-0.6-1.4c-0.4-0.4-0.9-0.5-1.6-0.5h-2.4V22h0.9v-2.6H244.2z M239.7,15.6h-3.9V22h0.9v-5.7h3.1
		V15.6z M230.9,16.7L230.9,16.7l1.1,2.9h-2.2L230.9,16.7z M232.9,22h0.9l-2.4-6.4h-0.7l-2.5,6.4h0.9l0.6-1.6h2.7L232.9,22z
		 M225.7,16c-0.4-0.3-1-0.5-1.8-0.5c-0.7,0-1.2,0.2-1.7,0.5c-0.4,0.3-0.7,0.7-0.6,1.3l0,0h0.8c0-0.3,0.1-0.6,0.4-0.8
		c0.3-0.2,0.6-0.3,1-0.3c0.5,0,0.9,0.1,1.2,0.3c0.3,0.2,0.4,0.5,0.4,0.8c0,0.3-0.1,0.6-0.4,0.8c-0.2,0.2-0.6,0.3-1.1,0.3h-0.8v0.7
		h0.8c0.5,0,0.9,0.1,1.2,0.3c0.3,0.2,0.4,0.5,0.4,0.9c0,0.4-0.1,0.6-0.4,0.9c-0.3,0.2-0.7,0.3-1.2,0.3c-0.5,0-0.8-0.1-1.1-0.3
		c-0.3-0.2-0.4-0.5-0.4-0.8h-0.8l0,0c0,0.6,0.2,1.1,0.7,1.4c0.5,0.3,1,0.5,1.7,0.5c0.8,0,1.4-0.2,1.8-0.5c0.5-0.3,0.7-0.8,0.7-1.4
		c0-0.4-0.1-0.7-0.3-0.9c-0.2-0.3-0.5-0.4-0.9-0.6c0.4-0.1,0.6-0.3,0.8-0.6c0.2-0.2,0.3-0.5,0.3-0.8C226.4,16.7,226.2,16.3,225.7,16
		"/>
	<path clip-path="url(#SVGID_18_)" d="M5,0c0,0-5,0-5,5v50c0,0,0,5,5,5h150c0,0,5,0,5-5V5c0,0,0-5-5-5H5z"/>
	<path clip-path="url(#SVGID_18_)" fill="#FFFFFF" d="M35.1,13c-3.8,0.2-6.8,4.1-6.4,7.4C32.2,20.6,35.5,16.7,35.1,13 M41.8,36.5
		c-1,3-3.9,8.4-7.1,8.5c-2.1,0-2.8-1.3-5.3-1.3c-2.4,0-3.2,1.2-5.2,1.3c-3.4,0.1-8.4-7.8-8.4-14.7c0-6.3,4.1-9.5,8-9.5
		c2.1,0,4,1.4,5.3,1.4c1.3,0,3.6-1.7,6.1-1.5c1,0,4,0.4,5.9,3.2C35.9,27.2,36.4,34,41.8,36.5"/>
	<path clip-path="url(#SVGID_18_)" fill="#FFFFFF" d="M57.2,29.6c0.2,0.7,0.4,1.4,0.6,2.2l1.4,4.1h-4l1.4-4.1
		C56.8,31.1,57,30.4,57.2,29.6 M56,27.1l-5.2,15.4h2.4l1.6-4.7h5l1.6,4.7h2.5l-5.2-15.4H56z"/>
	<path clip-path="url(#SVGID_18_)" fill="#FFFFFF" d="M70,33c2.1,0,3,1.9,3,3.8c0,2.5-1.2,4-3.1,4c-1.3,0-2.4-0.9-2.7-2.2
		c-0.1-0.2-0.1-0.5-0.1-0.8V36c0-0.2,0-0.4,0.1-0.6c0-0.1,0-0.1,0-0.2C67.5,33.9,68.7,33,70,33 M70.5,31.1c-1.6,0-2.8,0.6-3.7,1.8
		l-0.1-1.5h-2.1l0,0.2c0.1,1,0.1,2,0.1,3.5v11.8h2.3v-5.5c0.7,0.9,1.9,1.4,3.2,1.4c1.4,0,2.6-0.5,3.5-1.5c1-1.1,1.6-2.6,1.6-4.5
		c0-1.6-0.5-3-1.4-4.1C73.1,31.7,71.9,31.1,70.5,31.1"/>
	<path clip-path="url(#SVGID_18_)" fill="#FFFFFF" d="M81.9,33c2.1,0,3,1.9,3,3.8c0,2.5-1.2,4-3.1,4c-1.3,0-2.4-0.9-2.7-2.2
		C79,38.5,79,38.2,79,37.9V36c0-0.2,0-0.4,0.1-0.6c0-0.1,0-0.1,0-0.2C79.5,33.9,80.6,33,81.9,33 M82.5,31.1c-1.6,0-2.8,0.6-3.7,1.8
		l-0.1-1.5h-2.1l0,0.2c0.1,1,0.1,2,0.1,3.5v11.8H79v-5.5c0.7,0.9,1.9,1.4,3.2,1.4c1.4,0,2.6-0.5,3.5-1.5c1-1.1,1.6-2.6,1.6-4.5
		c0-1.6-0.5-3-1.4-4.1C85,31.7,83.8,31.1,82.5,31.1"/>
	<path clip-path="url(#SVGID_18_)" fill="#FFFFFF" d="M97.5,33.6c-2.2-0.8-2.9-1.5-2.9-2.7c0-1,0.8-2.1,2.6-2.1
		c1.5,0,2.5,0.5,2.7,0.7l0.2,0.1l0.7-1.9l-0.1-0.1c-0.4-0.2-1.5-0.8-3.4-0.8c-3,0-5,1.7-5,4.3c0,2,1.3,3.4,4.1,4.4
		c2,0.7,2.7,1.5,2.7,2.8c0,1.5-1.1,2.4-3,2.4c-1.2,0-2.4-0.3-3.3-0.9l-0.2-0.1l-0.6,2l0.1,0.1c0.9,0.6,2.5,1,3.9,1
		c4,0,5.4-2.4,5.4-4.5C101.4,36,100.3,34.7,97.5,33.6"/>
	<path clip-path="url(#SVGID_18_)" fill="#FFFFFF" d="M105.6,28.7l-2.3,0.7v1.9h-1.7v1.9h1.7v5.7c0,1.4,0.3,2.3,0.8,2.9
		c0.5,0.6,1.3,0.9,2.2,0.9c0.9,0,1.5-0.2,1.8-0.3l0.1,0l-0.1-1.9l-0.2,0.1c-0.3,0.1-0.6,0.1-1.1,0.1c-0.9,0-1.3-0.6-1.3-1.9v-5.6
		h2.8v-1.9h-2.8V28.7z"/>
	<path clip-path="url(#SVGID_18_)" fill="#FFFFFF" d="M114.1,32.9c2.1,0,3,2,3,3.9c0,2.3-1.3,4-3.1,4h0c-1.8,0-3-1.7-3-4
		C111,34.9,111.9,32.9,114.1,32.9 M114.1,31.1c-3.2,0-5.5,2.4-5.5,5.9c0,3.4,2.2,5.7,5.3,5.7h0c2.7,0,5.5-1.9,5.5-5.9
		c0-1.7-0.5-3.1-1.5-4.1C117.1,31.6,115.7,31.1,114.1,31.1"/>
	<path clip-path="url(#SVGID_18_)" fill="#FFFFFF" d="M126.6,31.2l-0.1,0c-0.2-0.1-0.4-0.1-0.6-0.1c-1.2,0-2.3,0.7-2.9,1.9l-0.1-1.6
		h-2.1l0,0.2c0.1,0.9,0.1,2,0.1,3.3l0,7.6h2.3v-5.9c0-0.3,0-0.6,0.1-0.9c0.3-1.4,1.2-2.3,2.4-2.3c0.2,0,0.4,0,0.6,0l0.2,0V31.2z"/>
	<path clip-path="url(#SVGID_18_)" fill="#FFFFFF" d="M131.7,32.8c0.7,0,1.3,0.2,1.7,0.7c0.7,0.7,0.8,1.7,0.8,2.2h-5.3
		C129.1,34.3,130,32.8,131.7,32.8 M131.8,31.1c-3.1,0-5.3,2.5-5.3,6c0,3.4,2.1,5.6,5.5,5.6c1.7,0,3-0.4,3.7-0.7l0.1-0.1l-0.4-1.7
		l-0.2,0.1c-0.6,0.3-1.5,0.5-2.9,0.5c-1,0-3.3-0.3-3.5-3.4l7.5,0l0-0.1c0-0.2,0.1-0.6,0.1-1C136.5,33.9,135.2,31.1,131.8,31.1"/>
	<path clip-path="url(#SVGID_18_)" fill="#FFFFFF" d="M114.9,16.3h1.2c0.4,0,0.7,0.1,0.9,0.3c0.2,0.2,0.3,0.4,0.3,0.8
		c0,0.3-0.1,0.6-0.3,0.7c-0.2,0.2-0.5,0.3-0.8,0.3h-1.4V16.3z M116.5,19c0.4,0,0.7,0.1,0.8,0.3c0.2,0.2,0.3,0.5,0.3,0.9
		c0,0.4-0.1,0.6-0.3,0.8c-0.2,0.2-0.5,0.3-0.9,0.3h-1.5V19H116.5z M116.4,22c0.6,0,1.2-0.2,1.5-0.5c0.4-0.3,0.6-0.8,0.6-1.3
		c0-0.4-0.1-0.7-0.3-1c-0.2-0.3-0.5-0.5-0.9-0.6c0.3-0.1,0.5-0.3,0.7-0.5c0.2-0.2,0.3-0.5,0.3-0.8c0-0.6-0.2-1-0.6-1.3
		c-0.4-0.3-0.9-0.4-1.6-0.4H114V22H116.4z M108.5,18.4h-2.9v-2.1h3.3v-0.7h-4.2V22h4.2v-0.7h-3.4V19h2.9V18.4z M102.7,15.6h-5v0.7
		h2.1V22h0.9v-5.7h2.1V15.6z M91.8,20.5L91.8,20.5l0-4.9h-0.9V22h0.9l3.1-4.9l0,0V22h0.9v-6.4h-0.9L91.8,20.5z M87.8,16
		c-0.4-0.3-1-0.5-1.8-0.5c-0.7,0-1.2,0.2-1.7,0.5c-0.4,0.3-0.7,0.7-0.6,1.3l0,0h0.8c0-0.3,0.1-0.6,0.4-0.8c0.3-0.2,0.6-0.3,1-0.3
		c0.5,0,0.9,0.1,1.2,0.3c0.3,0.2,0.4,0.5,0.4,0.8c0,0.3-0.1,0.6-0.4,0.8c-0.2,0.2-0.6,0.3-1.1,0.3h-0.8v0.7h0.8
		c0.5,0,0.9,0.1,1.2,0.3c0.3,0.2,0.4,0.5,0.4,0.9c0,0.4-0.1,0.6-0.4,0.9c-0.3,0.2-0.7,0.3-1.2,0.3c-0.5,0-0.8-0.1-1.1-0.3
		c-0.3-0.2-0.4-0.5-0.4-0.8h-0.8l0,0c0,0.6,0.2,1.1,0.7,1.4c0.5,0.3,1,0.5,1.7,0.5c0.8,0,1.4-0.2,1.8-0.5c0.5-0.3,0.7-0.8,0.7-1.4
		c0-0.4-0.1-0.7-0.3-0.9c-0.2-0.3-0.5-0.4-0.9-0.6c0.4-0.1,0.6-0.3,0.8-0.6c0.2-0.2,0.3-0.5,0.3-0.8C88.5,16.7,88.3,16.3,87.8,16
		 M77.9,15.6h-1l2.1,4.8l-0.2,0.4c-0.1,0.2-0.2,0.4-0.3,0.5c-0.1,0.1-0.2,0.2-0.4,0.2c0,0-0.1,0-0.2,0c-0.1,0-0.2,0-0.2,0l0,0.7
		c0,0,0.1,0,0.2,0c0.1,0,0.2,0,0.3,0c0.4,0,0.8-0.1,1-0.3c0.2-0.2,0.4-0.5,0.6-0.9l2.2-5.3h-1l-1.4,3.8h0l-0.3-0.8L77.9,15.6z
		 M71.6,16.3h1.6c0.4,0,0.8,0.1,1,0.4c0.2,0.2,0.3,0.5,0.3,0.9c0,0.4-0.1,0.6-0.3,0.9c-0.2,0.2-0.5,0.3-1,0.3h-1.6V16.3z M73.2,19.4
		c0.7,0,1.2-0.2,1.6-0.5s0.6-0.8,0.6-1.4c0-0.6-0.2-1-0.6-1.4c-0.4-0.4-0.9-0.5-1.6-0.5h-2.4V22h0.9v-2.6H73.2z M68.7,15.6h-3.9V22
		h0.9v-5.7h3.1V15.6z M59.9,16.7L59.9,16.7l1.1,2.9h-2.2L59.9,16.7z M61.9,22h0.9l-2.4-6.4h-0.7L57.1,22H58l0.6-1.6h2.7L61.9,22z
		 M54.7,16c-0.4-0.3-1-0.5-1.8-0.5c-0.7,0-1.2,0.2-1.7,0.5c-0.4,0.3-0.7,0.7-0.6,1.3l0,0h0.8c0-0.3,0.1-0.6,0.4-0.8
		c0.3-0.2,0.6-0.3,1-0.3c0.5,0,0.9,0.1,1.2,0.3c0.3,0.2,0.4,0.5,0.4,0.8c0,0.3-0.1,0.6-0.4,0.8c-0.2,0.2-0.6,0.3-1.1,0.3h-0.8v0.7
		H53c0.5,0,0.9,0.1,1.2,0.3c0.3,0.2,0.4,0.5,0.4,0.9c0,0.4-0.1,0.6-0.4,0.9c-0.3,0.2-0.7,0.3-1.2,0.3c-0.5,0-0.8-0.1-1.1-0.3
		c-0.3-0.2-0.4-0.5-0.4-0.8h-0.8l0,0c0,0.6,0.2,1.1,0.7,1.4c0.5,0.3,1,0.5,1.7,0.5c0.8,0,1.4-0.2,1.8-0.5c0.5-0.3,0.7-0.8,0.7-1.4
		c0-0.4-0.1-0.7-0.3-0.9c-0.2-0.3-0.5-0.4-0.9-0.6c0.4-0.1,0.6-0.3,0.8-0.6c0.2-0.2,0.3-0.5,0.3-0.8C55.4,16.7,55.2,16.3,54.7,16"/>
</g>
</svg>
