<?xml version="1.0" encoding="utf-8"?>
<!-- Generator: Adobe Illustrator 18.0.0, SVG Export Plug-In . SVG Version: 6.00 Build 0)  -->
<!DOCTYPE svg PUBLIC "-//W3C//DTD SVG 1.1//EN" "http://www.w3.org/Graphics/SVG/1.1/DTD/svg11.dtd">
<svg version="1.1" id="Слой_1" xmlns="http://www.w3.org/2000/svg" xmlns:xlink="http://www.w3.org/1999/xlink" x="0px" y="0px"
	 viewBox="0 0 140 150" enable-background="new 0 0 140 150" xml:space="preserve">
<g>
	<defs>
		<rect id="SVGID_1_" width="140" height="150"/>
	</defs>
	<clipPath id="SVGID_2_">
		<use xlink:href="#SVGID_1_"  overflow="visible"/>
	</clipPath>
	<path clip-path="url(#SVGID_2_)" fill="none" stroke="#FD6021" stroke-width="3" d="M70,148.5c37.8,0,68.5-30.7,68.5-68.5
		S107.8,11.5,70,11.5S1.5,42.2,1.5,80S32.2,148.5,70,148.5z"/>
</g>
<g>
	<defs>
		<rect id="SVGID_3_" width="70" height="80"/>
	</defs>
	<clipPath id="SVGID_4_">
		<use xlink:href="#SVGID_3_"  overflow="visible"/>
	</clipPath>
	<path clip-path="url(#SVGID_4_)" fill="none" stroke="#FD6021" stroke-width="3" d="M70,138.5c32.3,0,58.5-26.2,58.5-58.5
		S102.3,21.5,70,21.5S11.5,47.7,11.5,80S37.7,138.5,70,138.5z"/>
</g>
<g>
	<path fill="#FD6020" d="M69.2,59.9H69l-6.8,3.7l-1-4l8.5-4.6h4.5v39h-5.1V59.9z"/>
</g>
</svg>
