<?xml version="1.0" encoding="utf-8"?>
<!-- Generator: Adobe Illustrator 18.0.0, SVG Export Plug-In . SVG Version: 6.00 Build 0)  -->
<!DOCTYPE svg PUBLIC "-//W3C//DTD SVG 1.1//EN" "http://www.w3.org/Graphics/SVG/1.1/DTD/svg11.dtd">
<svg version="1.1" id="Слой_1" xmlns="http://www.w3.org/2000/svg" xmlns:xlink="http://www.w3.org/1999/xlink" x="0px" y="0px"
	 viewBox="0 0 173 86" enable-background="new 0 0 173 86" xml:space="preserve">
<g>
	<defs>
		<path id="SVGID_1_" d="M52.6,33.5l-3-2.1l3.5-1.1l1.1-3.5l2.1,3l3.7,0l-2.2,3l1.2,3.5L55.5,35l-3,2.2L52.6,33.5z M59.5,20.7
			l-1.6-1.1l1.9-0.6l0.6-1.9l1.1,1.6l1.9,0l-1.2,1.6l0.6,1.8L61,21.5l-1.6,1.2L59.5,20.7z M41.8,23l-3.7-2.6l4.3-1.3l1.3-4.3
			l2.6,3.7l4.5-0.1L48.2,22l1.5,4.3l-4.3-1.5l-3.6,2.7L41.8,23z M12.6,12.7C4.2,21.1,0,32.3,0,43.4v0.3c0,3.1,0.4,6.2,1,9.3h0.2
			C3,60.4,6.8,67.5,12.6,73.4C26,86.8,46,89.5,62.2,81.6L31,49.1l-4.5,9l-5.3-10.8L9.3,45.6l8.6-8.4l-2-11.8L26.5,31l10.6-5.6
			l-2,11.8l8.6,8.4L34.2,47L67,78.8c2.4-1.6,4.6-3.4,6.7-5.5c5.8-5.8,9.6-12.9,11.4-20.4h0.2c3.1-13.9-0.8-29.5-11.6-40.3
			C65.3,4.2,54.3,0,43.2,0S21.1,4.2,12.6,12.7"/>
	</defs>
	<clipPath id="SVGID_2_">
		<use xlink:href="#SVGID_1_"  overflow="visible"/>
	</clipPath>
	
		<linearGradient id="SVGID_3_" gradientUnits="userSpaceOnUse" x1="0" y1="85.9688" x2="1" y2="85.9688" gradientTransform="matrix(52 52 52 -52 -4456 4485.2754)">
		<stop  offset="0" style="stop-color:#FD6021"/>
		<stop  offset="1" style="stop-color:#E54918"/>
	</linearGradient>
	<polygon clip-path="url(#SVGID_2_)" fill="url(#SVGID_3_)" points="44.2,-44.2 133.2,44.7 44.2,133.7 -44.7,44.7 	"/>
</g>
<g>
	<defs>
		<rect id="SVGID_4_" width="154.8" height="86"/>
	</defs>
	<clipPath id="SVGID_5_">
		<use xlink:href="#SVGID_4_"  overflow="visible"/>
	</clipPath>
	<path clip-path="url(#SVGID_5_)" fill="#FFFFFF" d="M105.7,39.5h3.8V24.8h-3.8v5.5h-6.1v-5.5h-3.8v14.7h3.8v-5.9h6.1V39.5z
		 M112.2,39.5H123v-3.3h-7v-2.5h6.8v-3.3H116v-2.3h7v-3.3h-10.8V39.5z M125.2,39.5h9.7v-3.3H129V24.8h-3.8V39.5z M145.5,29.7
		c0,1-0.8,1.6-1.8,1.6h-3.1v-3.2h3.1C144.8,28.1,145.5,28.7,145.5,29.7 M149.4,29.7c0-2.7-1.8-4.9-5.1-4.9h-7.4v14.7h3.8v-4.9h3.6
		C147.6,34.6,149.4,32.3,149.4,29.7 M154.2,34.4l0.5-9.6h-4.1l0.5,9.6H154.2z M154.8,37.7c0-1.1-1-2.1-2.1-2.1c-1.1,0-2.1,1-2.1,2.1
		c0,1.1,0.9,2.1,2.1,2.1C153.8,39.7,154.8,38.8,154.8,37.7"/>
</g>
<g>
	<path fill="#FFFFFF" d="M97.3,46.6h-1.8v-0.7h4.5v0.7h-1.9V52h-0.8V46.6z"/>
	<path fill="#FFFFFF" d="M100,47.7c0.3-0.1,0.9-0.1,1.4-0.1c0.7,0,1.9,0.1,1.9,1.1c0,0.5-0.4,0.9-0.9,1v0c0.6,0.1,1.1,0.5,1.1,1.1
		c0,1.1-1.4,1.3-2.3,1.3c-0.5,0-1,0-1.2-0.1V47.7z M100.8,51.5c0.2,0,0.4,0,0.6,0c0.5,0,1.3-0.1,1.3-0.8c0-0.6-0.6-0.8-1.4-0.8h-0.6
		V51.5z M100.8,49.5h0.6c0.6,0,1.2-0.2,1.2-0.7c0-0.4-0.4-0.6-1.2-0.6c-0.3,0-0.4,0-0.6,0V49.5z"/>
	<path fill="#FFFFFF" d="M108.5,49.8c0,1.6-1.1,2.3-2.2,2.3c-1.2,0-2.1-0.9-2.1-2.2c0-1.5,1-2.3,2.2-2.3
		C107.6,47.5,108.5,48.5,108.5,49.8z M105,49.8c0,1,0.5,1.7,1.3,1.7c0.8,0,1.3-0.7,1.3-1.7c0-0.7-0.4-1.7-1.3-1.7
		C105.4,48.1,105,49,105,49.8z"/>
	<path fill="#FFFFFF" d="M110.2,47.6v1.8c0,0.7,0,1.1,0,1.7l0,0c0.3-0.5,0.4-0.8,0.7-1.3l1.4-2.3h0.9V52h-0.8v-1.8
		c0-0.7,0-1.1,0.1-1.8h0c-0.3,0.6-0.5,0.9-0.7,1.4c-0.4,0.7-0.9,1.5-1.4,2.3h-0.9v-4.4H110.2z M110.7,45.9c0,0.4,0.2,0.7,0.6,0.7
		c0.4,0,0.6-0.3,0.6-0.7h0.6c0,0.7-0.5,1.1-1.2,1.1c-0.8,0-1.1-0.5-1.1-1.1H110.7z"/>
	<path fill="#FFFFFF" d="M119.9,47.6V52h-0.8v-3.7h-2V52h-0.8v-4.4H119.9z"/>
	<path fill="#FFFFFF" d="M121.7,50c0,1.1,0.7,1.5,1.5,1.5c0.6,0,0.9-0.1,1.2-0.2l0.1,0.6c-0.3,0.1-0.8,0.3-1.5,0.3
		c-1.3,0-2.1-0.9-2.1-2.2s0.8-2.3,2-2.3c1.4,0,1.8,1.3,1.8,2.1c0,0.2,0,0.3,0,0.4H121.7z M124,49.4c0-0.5-0.2-1.3-1.1-1.3
		c-0.8,0-1.2,0.7-1.2,1.3H124z"/>
	<path fill="#FFFFFF" d="M125.7,49.1c0-0.6,0-1,0-1.4h0.7l0,0.7h0c0.3-0.5,0.8-0.8,1.5-0.8c1.1,0,1.8,0.9,1.8,2.2c0,1.6-1,2.3-2,2.3
		c-0.6,0-1.1-0.3-1.3-0.7h0v2.4h-0.8V49.1z M126.5,50.2c0,0.1,0,0.2,0,0.3c0.1,0.5,0.6,0.9,1.2,0.9c0.8,0,1.3-0.7,1.3-1.7
		c0-0.9-0.5-1.6-1.3-1.6c-0.5,0-1,0.4-1.2,1c0,0.1-0.1,0.2-0.1,0.3V50.2z"/>
	<path fill="#FFFFFF" d="M134,51.8c-0.2,0.1-0.7,0.3-1.3,0.3c-1.3,0-2.2-0.9-2.2-2.2c0-1.3,0.9-2.3,2.3-2.3c0.5,0,0.9,0.1,1.1,0.2
		l-0.2,0.6c-0.2-0.1-0.5-0.2-0.9-0.2c-1,0-1.5,0.7-1.5,1.6c0,1,0.6,1.6,1.5,1.6c0.4,0,0.7-0.1,1-0.2L134,51.8z"/>
	<path fill="#FFFFFF" d="M138.8,49.8c0,1.6-1.1,2.3-2.2,2.3c-1.2,0-2.1-0.9-2.1-2.2c0-1.5,1-2.3,2.2-2.3
		C137.9,47.5,138.8,48.5,138.8,49.8z M135.3,49.8c0,1,0.5,1.7,1.3,1.7c0.8,0,1.3-0.7,1.3-1.7c0-0.7-0.4-1.7-1.3-1.7
		C135.7,48.1,135.3,49,135.3,49.8z"/>
	<path fill="#FFFFFF" d="M140.5,47.6v1.8h2.1v-1.8h0.8V52h-0.8v-2h-2.1v2h-0.8v-4.4H140.5z"/>
	<path fill="#FFFFFF" d="M147.1,52l-0.1-0.5h0c-0.2,0.3-0.7,0.6-1.3,0.6c-0.9,0-1.3-0.6-1.3-1.3c0-1.1,0.9-1.6,2.6-1.6v-0.1
		c0-0.4-0.1-1-1-1c-0.4,0-0.8,0.1-1.1,0.3l-0.2-0.5c0.4-0.2,0.9-0.4,1.4-0.4c1.3,0,1.7,0.9,1.7,1.8V51c0,0.4,0,0.7,0.1,1H147.1z
		 M147,49.8c-0.9,0-1.8,0.1-1.8,1c0,0.5,0.3,0.8,0.7,0.8c0.6,0,0.9-0.4,1.1-0.7c0-0.1,0-0.2,0-0.3V49.8z"/>
	<path fill="#FFFFFF" d="M152.4,47.6V52h-0.8v-3.7h-1.5v1.1c0,1.2-0.1,2-0.7,2.4c-0.2,0.2-0.5,0.3-0.9,0.3l-0.1-0.6
		c0.2,0,0.3-0.1,0.4-0.2c0.4-0.3,0.5-0.9,0.5-1.9v-1.8H152.4z"/>
	<path fill="#FFFFFF" d="M154.4,47.6v1.5c0.2,0,0.5,0,0.7,0c1,0,2,0.3,2,1.5c0,0.5-0.2,0.8-0.5,1c-0.5,0.4-1.3,0.5-1.9,0.5
		c-0.4,0-0.8,0-1.2-0.1v-4.3H154.4z M154.4,51.5c0.2,0,0.3,0,0.6,0c0.6,0,1.4-0.2,1.4-0.9c0-0.8-0.8-0.9-1.4-0.9c-0.2,0-0.4,0-0.6,0
		V51.5z"/>
	<path fill="#FFFFFF" d="M158.9,47.6v1.8h2.1v-1.8h0.8V52H161v-2h-2.1v2h-0.8v-4.4H158.9z"/>
	<path fill="#FFFFFF" d="M163.8,47.6v1.5c0.2,0,0.4-0.1,0.7-0.1c0.9,0,1.9,0.4,1.9,1.5c0,0.5-0.2,0.8-0.5,1
		c-0.5,0.4-1.2,0.5-1.8,0.5c-0.4,0-0.8,0-1.2-0.1v-4.3H163.8z M163.8,51.5c0.2,0,0.3,0,0.5,0c0.6,0,1.3-0.3,1.3-0.9
		c0-0.7-0.6-0.9-1.2-0.9c-0.2,0-0.4,0-0.6,0V51.5z M167.7,47.6V52H167v-4.4H167.7z"/>
	<path fill="#FFFFFF" d="M169.8,47.6v1.8c0,0.7,0,1.1,0,1.7l0,0c0.3-0.5,0.4-0.8,0.7-1.3l1.4-2.3h0.9V52H172v-1.8
		c0-0.7,0-1.1,0.1-1.8h0c-0.3,0.6-0.5,0.9-0.7,1.4c-0.4,0.7-0.9,1.5-1.4,2.3H169v-4.4H169.8z M170.3,45.9c0,0.4,0.2,0.7,0.6,0.7
		c0.4,0,0.6-0.3,0.6-0.7h0.6c0,0.7-0.5,1.1-1.2,1.1c-0.8,0-1.1-0.5-1.1-1.1H170.3z"/>
	<path fill="#FFFFFF" d="M99.7,56.6V61h-0.8v-3.7h-2V61h-0.8v-4.4H99.7z"/>
	<path fill="#FFFFFF" d="M105,58.8c0,1.6-1.1,2.3-2.2,2.3c-1.2,0-2.1-0.9-2.1-2.2c0-1.5,1-2.3,2.2-2.3C104.1,56.5,105,57.5,105,58.8
		z M101.5,58.8c0,1,0.5,1.7,1.3,1.7c0.8,0,1.3-0.7,1.3-1.7c0-0.7-0.4-1.7-1.3-1.7C101.9,57.1,101.5,58,101.5,58.8z"/>
	<path fill="#FFFFFF" d="M106,56.6h1l0.8,2.2c0.1,0.3,0.3,0.9,0.4,1.2h0c0.1-0.3,0.3-1,0.5-1.5l0.7-1.9h1l0.3,4.4h-0.8l-0.1-2.1
		c0-0.5-0.1-1-0.1-1.6h0c-0.1,0.4-0.2,0.7-0.5,1.4l-0.8,2.2h-0.6l-0.8-2.2c-0.1-0.4-0.3-1-0.4-1.4h0c0,0.5,0,1.1-0.1,1.6l-0.1,2.1
		h-0.7L106,56.6z"/>
	<path fill="#FFFFFF" d="M115.7,58.8c0,1.6-1.1,2.3-2.2,2.3c-1.2,0-2.1-0.9-2.1-2.2c0-1.5,1-2.3,2.2-2.3
		C114.8,56.5,115.7,57.5,115.7,58.8z M112.2,58.8c0,1,0.5,1.7,1.3,1.7c0.8,0,1.3-0.7,1.3-1.7c0-0.7-0.4-1.7-1.3-1.7
		C112.6,57.1,112.2,58,112.2,58.8z"/>
	<path fill="#FFFFFF" d="M117.4,56.6v3.7h1.5v-3.7h0.8v3.7h1.5v-3.7h0.8V61h-5.4v-4.4H117.4z"/>
	<path fill="#FFFFFF" d="M124.1,56.6v1.8h2.1v-1.8h0.8V61h-0.8v-2h-2.1v2h-0.8v-4.4H124.1z"/>
	<path fill="#FFFFFF" d="M128.9,56.6v1.8c0,0.7,0,1.1,0,1.7l0,0c0.3-0.5,0.4-0.8,0.7-1.3l1.4-2.3h0.9V61h-0.8v-1.8
		c0-0.7,0-1.1,0.1-1.8h0c-0.3,0.6-0.5,0.9-0.7,1.4c-0.4,0.7-0.9,1.5-1.4,2.3h-0.9v-4.4H128.9z"/>
	<path fill="#FFFFFF" d="M134,56.6v1.9h0.2l1.6-1.9h1l-1.9,2c0.7,0.1,1.1,0.5,1.5,1.3c0.1,0.3,0.3,0.7,0.5,1.1H136
		c-0.1-0.2-0.3-0.5-0.4-0.9c-0.3-0.7-0.7-1-1.4-1H134V61h-0.8v-4.4H134z"/>
</g>
</svg>
