<?xml version="1.0" encoding="utf-8"?>
<!-- Generator: Adobe Illustrator 18.0.0, SVG Export Plug-In . SVG Version: 6.00 Build 0)  -->
<!DOCTYPE svg PUBLIC "-//W3C//DTD SVG 1.1//EN" "http://www.w3.org/Graphics/SVG/1.1/DTD/svg11.dtd">
<svg version="1.1" id="Слой_1" xmlns="http://www.w3.org/2000/svg" xmlns:xlink="http://www.w3.org/1999/xlink" x="0px" y="0px"
	 viewBox="0 0 38 30" enable-background="new 0 0 38 30" xml:space="preserve">
<g>
	<defs>
		<rect id="SVGID_1_" width="38" height="30"/>
	</defs>
	<clipPath id="SVGID_2_">
		<use xlink:href="#SVGID_1_"  overflow="visible"/>
	</clipPath>
	
		<path clip-path="url(#SVGID_2_)" fill="none" stroke="#FD6021" stroke-width="3" stroke-linecap="round" stroke-linejoin="round" d="
		M28.5,5.5c-2.6-2.5-5.9-4-9.5-4C11.6,1.5,5.5,7.6,5.5,15c0,0.2,0,0.5,0,0.7"/>
</g>
<polygon fill="#FD6021" points="0,15 5.5,22 11,15 "/>
<polygon fill="#FD6021" points="27,15 38,15 32.5,8 "/>
<g>
	<defs>
		<rect id="SVGID_3_" width="38" height="30"/>
	</defs>
	<clipPath id="SVGID_4_">
		<use xlink:href="#SVGID_3_"  overflow="visible"/>
	</clipPath>
	
		<path clip-path="url(#SVGID_4_)" fill="none" stroke="#FD6021" stroke-width="3" stroke-linecap="round" stroke-linejoin="round" d="
		M9.5,24.5c2.5,2.5,5.9,4,9.5,4c7.4,0,13.5-6.1,13.5-13.5"/>
</g>
</svg>
