<?xml version="1.0" encoding="utf-8"?>
<!-- Generator: Adobe Illustrator 18.0.0, SVG Export Plug-In . SVG Version: 6.00 Build 0)  -->
<!DOCTYPE svg PUBLIC "-//W3C//DTD SVG 1.1//EN" "http://www.w3.org/Graphics/SVG/1.1/DTD/svg11.dtd">
<svg version="1.1" id="Слой_1" xmlns="http://www.w3.org/2000/svg" xmlns:xlink="http://www.w3.org/1999/xlink" x="0px" y="0px"
	 viewBox="0 0 108 14" enable-background="new 0 0 108 14" xml:space="preserve">
<polygon fill="#FD6021" points="101,12.5 108,7 101,1.5 "/>
<line fill="none" stroke="#FD6021" stroke-width="3" stroke-linecap="round" stroke-linejoin="round" x1="27.5" y1="7" x2="101.5" y2="7"/>
<line fill="none" stroke="#FD6021" stroke-width="3" stroke-linecap="round" stroke-linejoin="round" x1="12.5" y1="7" x2="19.5" y2="7"/>
<g>
	<defs>
		<rect id="SVGID_1_" width="108" height="14"/>
	</defs>
	<clipPath id="SVGID_2_">
		<use xlink:href="#SVGID_1_"  overflow="visible"/>
	</clipPath>
	<path clip-path="url(#SVGID_2_)" fill="none" stroke="#FD6021" stroke-width="3" d="M7,12.5c3,0,5.5-2.5,5.5-5.5S10,1.5,7,1.5
		S1.5,4,1.5,7S4,12.5,7,12.5z"/>
</g>
</svg>
