<?xml version="1.0" encoding="utf-8"?>
<!-- Generator: Adobe Illustrator 18.0.0, SVG Export Plug-In . SVG Version: 6.00 Build 0)  -->
<!DOCTYPE svg PUBLIC "-//W3C//DTD SVG 1.1//EN" "http://www.w3.org/Graphics/SVG/1.1/DTD/svg11.dtd">
<svg version="1.1" id="Слой_1" xmlns="http://www.w3.org/2000/svg" xmlns:xlink="http://www.w3.org/1999/xlink" x="0px" y="0px"
	 viewBox="0 0 140 150" enable-background="new 0 0 140 150" xml:space="preserve">
<g>
	<defs>
		<rect id="SVGID_1_" width="140" height="150"/>
	</defs>
	<clipPath id="SVGID_2_">
		<use xlink:href="#SVGID_1_"  overflow="visible"/>
	</clipPath>
	<path clip-path="url(#SVGID_2_)" fill="none" stroke="#FD6021" stroke-width="3" d="M70,148.5c37.8,0,68.5-30.7,68.5-68.5
		S107.8,11.5,70,11.5S1.5,42.2,1.5,80S32.2,148.5,70,148.5z"/>
</g>
<g>
	<defs>
		<rect id="SVGID_3_" width="70" height="80"/>
	</defs>
	<clipPath id="SVGID_4_">
		<use xlink:href="#SVGID_3_"  overflow="visible"/>
	</clipPath>
	<path clip-path="url(#SVGID_4_)" fill="none" stroke="#FD6021" stroke-width="3" d="M70,138.5c32.3,0,58.5-26.2,58.5-58.5
		S102.3,21.5,70,21.5S11.5,47.7,11.5,80S37.7,138.5,70,138.5z"/>
</g>
<g>
	<path fill="#FD6020" d="M60.5,90.4c1.5,1,5,2.5,8.6,2.5c6.8,0,8.9-4.3,8.8-7.6c-0.1-5.5-5-7.8-10.1-7.8h-2.9v-4h2.9
		c3.8,0,8.7-2,8.7-6.6c0-3.1-2-5.9-6.8-5.9c-3.1,0-6.1,1.4-7.8,2.6l-1.4-3.8c2-1.5,6-3,10.2-3c7.7,0,11.2,4.6,11.2,9.3
		c0,4-2.4,7.4-7.2,9.2v0.1c4.8,1,8.7,4.6,8.7,10c0,6.2-4.9,11.7-14.2,11.7c-4.4,0-8.2-1.4-10.1-2.6L60.5,90.4z"/>
</g>
</svg>
