<?xml version="1.0" encoding="utf-8"?>
<!-- Generator: Adobe Illustrator 18.0.0, SVG Export Plug-In . SVG Version: 6.00 Build 0)  -->
<!DOCTYPE svg PUBLIC "-//W3C//DTD SVG 1.1//EN" "http://www.w3.org/Graphics/SVG/1.1/DTD/svg11.dtd">
<svg version="1.1" id="Слой_1" xmlns="http://www.w3.org/2000/svg" xmlns:xlink="http://www.w3.org/1999/xlink" x="0px" y="0px"
	 viewBox="0 0 123.8 50" enable-background="new 0 0 123.8 50" xml:space="preserve">
<g>
	<defs>
		<path id="SVGID_1_" d="M30.4,19.5l-1.7-1.2l2-0.6l0.6-2.1l1.2,1.8l2.1,0L33.5,19l0.7,2l-2-0.7l-1.7,1.3L30.4,19.5z M34.4,12.1
			l-0.9-0.7l1.1-0.3l0.3-1.1l0.6,0.9l1.1,0L36,11.8l0.4,1.1l-1.1-0.4l-0.9,0.7L34.4,12.1z M24.2,13.4L22,11.8l2.5-0.8l0.8-2.5
			l1.5,2.2l2.6,0l-1.6,2.1l0.8,2.5l-2.5-0.8L24.2,16L24.2,13.4z M7.3,7.4C1,13.7-1.2,22.7,0.6,30.8h0.1c1,4.3,3.2,8.5,6.6,11.8
			c7.8,7.8,19.3,9.4,28.7,4.8l-18-18.9l-2.6,5.2l-3.1-6.3l-6.9-1l5-4.9l-1.2-6.9l6.2,3.2l6.2-3.2l-1.2,6.9l5,4.9l-5.5,0.8l19,18.5
			c1.4-0.9,2.7-2,3.9-3.2c3.4-3.4,5.6-7.5,6.6-11.8h0.1c1.8-8.1-0.5-17.1-6.7-23.4C37.8,2.5,31.4,0,25,0C18.6,0,12.2,2.5,7.3,7.4"/>
	</defs>
	<clipPath id="SVGID_2_">
		<use xlink:href="#SVGID_1_"  overflow="visible"/>
	</clipPath>
	
		<linearGradient id="SVGID_3_" gradientUnits="userSpaceOnUse" x1="0" y1="49.9586" x2="1" y2="49.9586" gradientTransform="matrix(30.1109 30.2162 30.2162 -30.1109 -1501.5485 1513.2621)">
		<stop  offset="0" style="stop-color:#FC6021"/>
		<stop  offset="1" style="stop-color:#E44918"/>
	</linearGradient>
	<polygon clip-path="url(#SVGID_2_)" fill="url(#SVGID_3_)" points="25.1,-26.2 77.2,26.1 24.9,78.2 -27.2,25.9 	"/>
</g>
<g>
	<defs>
		<rect id="SVGID_4_" width="123.8" height="50"/>
	</defs>
	<clipPath id="SVGID_5_">
		<use xlink:href="#SVGID_4_"  overflow="visible"/>
	</clipPath>
	<path clip-path="url(#SVGID_5_)" fill="#FFFFFF" d="M74.7,33.5h3.8V18.8h-3.8v5.5h-6.1v-5.5h-3.8v14.7h3.8v-5.9h6.1V33.5z
		 M81.2,33.5H92v-3.3h-7v-2.5h6.8v-3.3H85v-2.3h7v-3.3H81.2V33.5z M94.2,33.5h9.7v-3.3H98V18.8h-3.8V33.5z M114.5,23.7
		c0,1-0.8,1.6-1.8,1.6h-3.1v-3.2h3.1C113.8,22.1,114.5,22.7,114.5,23.7 M118.4,23.7c0-2.7-1.8-4.9-5.1-4.9h-7.4v14.7h3.8v-4.9h3.6
		C116.6,28.6,118.4,26.3,118.4,23.7 M123.2,28.4l0.5-9.6h-4.1l0.5,9.6H123.2z M123.8,31.7c0-1.1-1-2.1-2.1-2.1c-1.1,0-2.1,1-2.1,2.1
		c0,1.1,0.9,2.1,2.1,2.1C122.8,33.7,123.8,32.8,123.8,31.7"/>
</g>
</svg>
