<?xml version="1.0" encoding="utf-8"?>
<!-- Generator: Adobe Illustrator 18.0.0, SVG Export Plug-In . SVG Version: 6.00 Build 0)  -->
<!DOCTYPE svg PUBLIC "-//W3C//DTD SVG 1.1//EN" "http://www.w3.org/Graphics/SVG/1.1/DTD/svg11.dtd">
<svg version="1.1" id="Слой_1" xmlns="http://www.w3.org/2000/svg" xmlns:xlink="http://www.w3.org/1999/xlink" x="0px" y="0px"
	 viewBox="0 0 235 74" enable-background="new 0 0 235 74" xml:space="preserve">
<g>
	<path fill="#FF6347" d="M12.2,10.8h10.7v51.6H12.2V10.8z"/>
	<path fill="#FF6347" d="M46.1,62.4c-7.1-16.8-13-34.1-17.7-51.6h11.5c3.1,13,7.2,26,11.8,38.8c4.6-12.9,8.5-25.8,11.7-38.8h11.2
		c-4.8,17.6-10.9,34.8-17.9,51.6H46.1z"/>
	<path fill="#FF6347" d="M80.7,10.8h10.9l20.1,34.1V10.8h10.7v51.6h-10.7L91.4,28.1v34.3H80.7V10.8z"/>
	<path fill="#FF6347" d="M132.9,10.8H171v8.9h-27.4v11.3h25.3v8.9h-25.3v13.8h28.6v8.9h-39.2V10.8z"/>
	<path fill="#FF6347" d="M180.9,10.8h22.4c10.7,0,20.1,0.3,20.1,15.5c0,10.1-4.2,13.8-10.1,15.2l13.5,21h-13l-12.7-20.3h-9.6v20.3
		h-10.7V10.8z M191.6,19.6v13.6h9.6c8.6,0,11.4-0.9,11.4-7.3c0-5.2-1.8-6.3-10.8-6.3H191.6z"/>
</g>
</svg>
